Transformar y seleccionar variables | Análisis Estadístico en R
…
Si queremos incluir las variables variable1, variable2 y variable3

select(datos, variable1, variable2, variable3)

Si queremos excluir anteponemos un menos -variable1

select(datos, -variable1)

select() por indexación

La indexación refiere al orden que tiene la columna o variable dentro de los datos. Imaginemos que queremos seleccionar:

select(datos, 1, 2) # la primera y la segunda columna

## # A tibble: 185,437 x 2
##           folio     o
##           <dbl> <dbl>
##  1 110110010101     1
##  2 110110010101     2
##  3 110110010201     2
##  4 110110010201     1
##  5 110110010201     3
##  6 110110010301     2
##  7 110110010301     3
##  8 110110010301     1
##  9 110110010401     1
## 10 110110010401     2
## # ... with 185,427 more rows

select(datos, 1:4) # la primera hasta la cuarta columna

## # A tibble: 185,437 x 4
##           folio     o id_persona id_vivienda
##           <dbl> <dbl>      <dbl>       <dbl>
##  1 110110010101     1          5  1101100101
##  2 110110010101     2          6  1101100101
##  3 110110010201     2         31  1101100102
##  4 110110010201     1         32  1101100102
##  5 110110010201     3         30  1101100102
##  6 110110010301     2        117  1101100103
##  7 110110010301     3        118  1101100103
##  8 110110010301     1        116  1101100103
##  9 110110010401     1       2209  1101100104
## 10 110110010401     2       2210  1101100104
## # ... with 185,427 more rows

select(datos, c(1,4)) # la primera y la cuarta columna

## # A tibble: 185,437 x 2
##           folio id_vivienda
##           <dbl>       <dbl>
##  1 110110010101  1101100101
##  2 110110010101  1101100101
##  3 110110010201  1101100102
##  4 110110010201  1101100102
##  5 110110010201  1101100102
##  6 110110010301  1101100103
##  7 110110010301  1101100103
##  8 110110010301  1101100103
##  9 110110010401  1101100104
## 10 110110010401  1101100104
## # ... with 185,427 more rows

select() por nombre de columna

Si conocemos el nombre de la variable simplemente lo podemos poner y se seleccionará.

select(datos, edad, sexo, o1)

## # A tibble: 185,437 x 3
##     edad       sexo        o1
##    <dbl>  <dbl+lbl> <dbl+lbl>
##  1    34 2 [Mujer]     2 [No]
##  2     4 2 [Mujer]    NA     
##  3     5 2 [Mujer]    NA     
##  4    45 1 [Hombre]    1 [Sí]
##  5    19 2 [Mujer]     2 [No]
##  6    57 1 [Hombre]    1 [Sí]
##  7    20 1 [Hombre]    2 [No]
##  8    56 2 [Mujer]     2 [No]
##  9    77 1 [Hombre]    2 [No]
## 10    60 2 [Mujer]     2 [No]
## # ... with 185,427 more rows

También puedo renombrar en el mismo proceso de selección indicando nuevo_nombre = nombre_original en el proceso de selección

select(datos, edad, sexo, ocupacion = o1)

## # A tibble: 185,437 x 3
##     edad       sexo ocupacion
##    <dbl>  <dbl+lbl> <dbl+lbl>
##  1    34 2 [Mujer]     2 [No]
##  2     4 2 [Mujer]    NA     
##  3     5 2 [Mujer]    NA     
##  4    45 1 [Hombre]    1 [Sí]
##  5    19 2 [Mujer]     2 [No]
##  6    57 1 [Hombre]    1 [Sí]
##  7    20 1 [Hombre]    2 [No]
##  8    56 2 [Mujer]     2 [No]
##  9    77 1 [Hombre]    2 [No]
## 10    60 2 [Mujer]     2 [No]
## # ... with 185,427 more rows

select() para reordenar variables

Podemos seleccionar variables y luego indicar que queremos todo el resto de las variables (everythin()). Solo por una cosa de orden. Esto será útil sobre todo cuando tengamos identificadores

select(datos, id_persona, sexo, edad, everything())

## # A tibble: 185,437 x 650
##    id_persona      sexo  edad    folio     o id_vivienda       region  provincia
##         <dbl> <dbl+lbl> <dbl>    <dbl> <dbl>       <dbl>    <dbl+lbl>  <dbl+lbl>
##  1          5 2 [Mujer]    34  1.10e11     1  1101100101 1 [Región d~ 11 [Iquiq~
##  2          6 2 [Mujer]     4  1.10e11     2  1101100101 1 [Región d~ 11 [Iquiq~
##  3         31 2 [Mujer]     5  1.10e11     2  1101100102 1 [Región d~ 11 [Iquiq~
##  4         32 1 [Hombr~    45  1.10e11     1  1101100102 1 [Región d~ 11 [Iquiq~
##  5         30 2 [Mujer]    19  1.10e11     3  1101100102 1 [Región d~ 11 [Iquiq~
##  6        117 1 [Hombr~    57  1.10e11     2  1101100103 1 [Región d~ 11 [Iquiq~
##  7        118 1 [Hombr~    20  1.10e11     3  1101100103 1 [Región d~ 11 [Iquiq~
##  8        116 2 [Mujer]    56  1.10e11     1  1101100103 1 [Región d~ 11 [Iquiq~
##  9       2209 1 [Hombr~    77  1.10e11     1  1101100104 1 [Región d~ 11 [Iquiq~
## 10       2210 2 [Mujer]    60  1.10e11     2  1101100104 1 [Región d~ 11 [Iquiq~
## # ... with 185,427 more rows, and 642 more variables: comuna <dbl+lbl>,
## #   zona <dbl+lbl>, area <dbl+lbl>, segmento <dbl>, estrato <dbl>,
## #   cod_upm <dbl>, hogar <dbl>, p6_p_con <dbl+lbl>, expr <dbl>, expp <dbl>,
## #   expc <dbl>, varstrat <dbl>, varunit <dbl>, fecha_entrev <date>,
## #   metodologia_entrev <dbl+lbl>, tot_hog <dbl>, numviv <dbl>,
## #   informante_idoneo <dbl+lbl>, tel1 <dbl+lbl>, tel2 <dbl+lbl>,
## #   tel3 <dbl+lbl>, tel4 <dbl+lbl>, tel5 <dbl+lbl>, tel6 <dbl+lbl>,
## #   tel7 <dbl+lbl>, tel8 <dbl+lbl>, p0a <dbl+lbl>, p0b <dbl+lbl>, p1 <dbl+lbl>,
## #   p2 <dbl+lbl>, p3 <dbl+lbl>, p4 <dbl+lbl>, p5 <dbl+lbl>, p6 <dbl>,
…
select() con patrones de texto

Podemos seleccionar variables considerando los prefijos, sufijos o partes de cómo están nombradas las variables. Independiente de qué tipo de patrón estes buscando, como todo texto y expresión regular en R (y gran parte de los carácteres) este texto debe venir entre comillas. Algunas de las funciones que posibilitan este proceso son:

starts_with(): prefijo

ends_with() :  sufijo

contains() : contiene una cadena de texto literal

matches() : coincide con una expresión regular

select(datos, starts_with("a"), ends_with("preg"))

## # A tibble: 185,437 x 63
##       area asiste2    activ   activ2 y1_preg y2a_preg y2b_preg y3a_preg y3b_preg
##    <dbl+l> <dbl+l> <dbl+lb> <dbl+lb> <dbl+l> <dbl+lb> <dbl+lb> <dbl+lb> <dbl+lb>
##  1 1 [Urb~ 2 [No ~  1 [Ocu~  1 [Ocu~ NA      NA       NA        NA       NA     
##  2 1 [Urb~ 1 [Asi~ NA       NA       NA      NA       NA        NA       NA     
##  3 1 [Urb~ 1 [Asi~ NA       NA       NA      NA       NA        NA       NA     
##  4 1 [Urb~ 2 [No ~  1 [Ocu~  1 [Ocu~  1 [Sí]  1 [Día~  1 [Hor~   1 [Sí]   1 [Sí]
##  5 1 [Urb~ 2 [No ~  1 [Ocu~  1 [Ocu~ NA      NA       NA        NA       NA     
##  6 1 [Urb~ 2 [No ~  1 [Ocu~  1 [Ocu~  1 [Sí]  1 [Día~  1 [Hor~   2 [No]   2 [No]
##  7 1 [Urb~ 1 [Asi~  3 [Ina~  4 [Ina~ NA      NA       NA        NA       NA     
##  8 1 [Urb~ 2 [No ~  3 [Ina~  4 [Ina~ NA      NA       NA        NA       NA     
##  9 1 [Urb~ 2 [No ~  3 [Ina~  4 [Ina~ NA      NA       NA        NA       NA     
## 10 1 [Urb~ 2 [No ~  3 [Ina~  4 [Ina~ NA      NA       NA        NA       NA     
## # ... with 185,427 more rows, and 54 more variables: y3c_preg <dbl+lbl>,
## #   y3d_preg <dbl+lbl>, y3e_preg <dbl+lbl>, y3f_preg <dbl+lbl>,
## #   y4a_preg <dbl+lbl>, y4b_preg <dbl+lbl>, y4c_preg <dbl+lbl>,
## #   y4d_preg <dbl+lbl>, y5a_preg <dbl+lbl>, y5b_preg <dbl+lbl>,
## #   y5c_preg <dbl+lbl>, y5d_preg <dbl+lbl>, y5e_preg <dbl+lbl>,
## #   y5f_preg <dbl+lbl>, y5g_preg <dbl+lbl>, y5h_preg <dbl+lbl>,
## #   y5i_preg <dbl+lbl>, y5j_preg <dbl+lbl>, y5k_preg <dbl+lbl>,
## #   y5l_preg <dbl+lbl>, y6_preg <dbl+lbl>, y7_preg <dbl+lbl>,
## #   y8_preg <dbl+lbl>, y9_preg <dbl+lbl>, y10_preg <dbl+lbl>,
…
# También se pueden combinar con operadores logicos

select(datos, starts_with("y1")&ends_with("preg")) 

## # A tibble: 185,437 x 21
##     y1_preg y10_preg  y11_preg y12a_preg y12b_preg y13a_preg y13b_preg y13c_preg
##    <dbl+lb> <dbl+lb> <dbl+lbl> <dbl+lbl> <dbl+lbl> <dbl+lbl> <dbl+lbl> <dbl+lbl>
##  1  NA            NA NA           2 [No]    2 [No]    2 [No]    2 [No]    1 [Sí]
##  2  NA            NA NA          NA        NA         2 [No]    1 [Sí]    2 [No]
##  3  NA            NA NA          NA        NA         2 [No]    2 [No]    1 [Sí]
##  4   1 [Sí]       NA NA           2 [No]    2 [No]    2 [No]    2 [No]    2 [No]
##  5  NA            NA NA           2 [No]    2 [No]    2 [No]    2 [No]    1 [Sí]
##  6   1 [Sí]       NA NA           2 [No]    2 [No]    2 [No]    2 [No]    2 [No]
##  7  NA            NA  2 [No r~    2 [No]    2 [No]    2 [No]    2 [No]    2 [No]
##  8  NA            NA  2 [No r~    2 [No]    2 [No]    2 [No]    2 [No]    2 [No]
##  9  NA            NA  2 [No r~    2 [No]    2 [No]    2 [No]    2 [No]    2 [No]
## 10  NA            NA  2 [No r~    2 [No]    2 [No]    2 [No]    2 [No]    2 [No]
## # ... with 185,427 more rows, and 13 more variables: y14a_preg <dbl+lbl>,
## #   y14b_preg <dbl+lbl>, y14c_preg <dbl+lbl>, y15a_preg <dbl+lbl>,
## #   y15b_preg <dbl+lbl>, y15c_preg <dbl+lbl>, y16a_preg <dbl+lbl>,
## #   y16b_preg <dbl+lbl>, y17_preg <dbl+lbl>, y18a_preg <dbl+lbl>,
## #   y18b_preg <dbl+lbl>, y18c_preg <dbl+lbl>, y18d_preg <dbl+lbl>

select(datos, contains("pobre")|contains("vivienda"))

## # A tibble: 185,437 x 3
##          pobreza                          pobreza_sinte id_vivienda
##        <dbl+lbl>                              <dbl+lbl>       <dbl>
##  1 3 [No pobres] 3 [No pobres sin transferencia Covid ]  1101100101
##  2 3 [No pobres] 3 [No pobres sin transferencia Covid ]  1101100101
##  3 3 [No pobres] 3 [No pobres sin transferencia Covid ]  1101100102
##  4 3 [No pobres] 3 [No pobres sin transferencia Covid ]  1101100102
##  5 3 [No pobres] 3 [No pobres sin transferencia Covid ]  1101100102
##  6 3 [No pobres] 3 [No pobres sin transferencia Covid ]  1101100103
##  7 3 [No pobres] 3 [No pobres sin transferencia Covid ]  1101100103
##  8 3 [No pobres] 3 [No pobres sin transferencia Covid ]  1101100103
##  9 3 [No pobres] 3 [No pobres sin transferencia Covid ]  1101100104
## 10 3 [No pobres] 3 [No pobres sin transferencia Covid ]  1101100104
## # ... with 185,427 more rows

select(datos, matches("pobreza_|vivienda"))

## # A tibble: 185,437 x 2
##    id_vivienda                          pobreza_sinte
##          <dbl>                              <dbl+lbl>
##  1  1101100101 3 [No pobres sin transferencia Covid ]
##  2  1101100101 3 [No pobres sin transferencia Covid ]
##  3  1101100102 3 [No pobres sin transferencia Covid ]
##  4  1101100102 3 [No pobres sin transferencia Covid ]
##  5  1101100102 3 [No pobres sin transferencia Covid ]
##  6  1101100103 3 [No pobres sin transferencia Covid ]
##  7  1101100103 3 [No pobres sin transferencia Covid ]
##  8  1101100103 3 [No pobres sin transferencia Covid ]
##  9  1101100104 3 [No pobres sin transferencia Covid ]
## 10  1101100104 3 [No pobres sin transferencia Covid ]
## # ... with 185,427 more rows

select() y condiciones lógicas

Si combinamos select() con where() obtendremos algo así como una frase “seleciona donde”, ese donde responde a una condición que cumple cierta variable. Por ejemplo, queremos seleccionar todas las variables que son carácteres (is.character):

select(datos, where(is.character))

## # A tibble: 185,437 x 19
##    h5_1   o7_esp o9a     o9b    o24     o32_esp y3f_esp y4d_esp y18d_esp y27_esp
##    <chr>  <chr>  <chr>   <chr>  <chr>   <chr>   <chr>   <chr>   <chr>    <chr>  
##  1 0      ""     "VENDE~ "VEND~ "VENDE~ ""      ""      ""      ""       ""     
##  2 5      ""     ""      ""     ""      ""      ""      ""      ""       ""     
##  3 32     ""     ""      ""     ""      ""      ""      ""      ""       ""     
##  4 0      ""     "GASTR~ "BARM~ "HOTEL~ ""      ""      ""      ""       ""     
##  5 32     ""     "ARTES~ "QUEQ~ "HACE ~ ""      ""      ""      ""       ""     
##  6 0      ""     "DGAC"  "CONT~ "AEROP~ ""      ""      ""      ""       ""     
##  7 116|1~ ""     ""      ""     ""      ""      ""      ""      ""       ""     
##  8 0      ""     ""      ""     ""      ""      ""      ""      ""       ""     
##  9 0      ""     ""      ""     ""      ""      ""      ""      ""       ""     
## 10 0      ""     ""      ""     ""      ""      ""      ""      ""       ""     
## # ... with 185,427 more rows, and 9 more variables: y28_1j_esp <chr>,
## #   s18_esp <chr>, s28_esp <chr>, s30_esp <chr>, r1b_comuna_esp <chr>,
## #   r1b_pais_esp <chr>, r2_comuna_esp <chr>, r2_pais_esp <chr>, v20_esp <chr>
…
tot_per: número de personas en el hogar

ytoth: ingresos totales del hogar

o1: ocupación

y26d_total: Monto del IFE

y26d_hog: ¿Alguien recibió el IFE?

¡Apliquémos conocimientos!

select(datos, edad, sexo, prev =592, ocupacion = o1, tot_per, ytoth, starts_with("y26d_")&matches("total|hog"))

## # A tibble: 185,437 x 8
##     edad      sexo             prev ocupacion tot_per  ytoth y26d_hog y26d_total
##    <dbl> <dbl+lbl>        <dbl+lbl> <dbl+lbl>   <dbl>  <dbl> <dbl+lb>  <dbl+lbl>
##  1    34 2 [Mujer] 3 [ISAPRE]          2 [No]       2 3.91e5   1 [Sí]         NA
##  2     4 2 [Mujer] 3 [ISAPRE]         NA            2 3.91e5   1 [Sí]         NA
##  3     5 2 [Mujer] 4 [Ninguno (par~   NA            3 9.48e5   2 [No]         NA
##  4    45 1 [Hombr~ 1 [Sistema Públ~    1 [Sí]       3 9.48e5   2 [No]         NA
##  5    19 2 [Mujer] 4 [Ninguno (par~    2 [No]       3 9.48e5   2 [No]         NA
##  6    57 1 [Hombr~ 5 [Otro sistema]    1 [Sí]       3 3.00e6   2 [No]         NA
##  7    20 1 [Hombr~ 5 [Otro sistema]    2 [No]       3 3.00e6   2 [No]         NA
##  8    56 2 [Mujer] 5 [Otro sistema]    2 [No]       3 3.00e6   2 [No]         NA
##  9    77 1 [Hombr~ 1 [Sistema Públ~    2 [No]       2 6.10e5   2 [No]         NA
## 10    60 2 [Mujer] 1 [Sistema Públ~    2 [No]       2 6.10e5   2 [No]         NA
## # ... with 185,427 more rows
…
La función filter() de dplyr escoge o extrae filas basados en sus valores, subdivide un data frame (subset), reteniendo todas las filas que satisfacen sus condiciones.

Con filter() será esencial el uso de los operadores que ya vimos, dado que las observaciones que preservarán en nuestros datos (y aquellas que no), están definidas por condiciones lógicas (relacionales o booleanas)

filter(datos, condicion_para filtrar)
Esta condición para filtrar podría ser, por ejemplo
variable1 >= 3

filter con números

Imaginémos que queremos una base con las personas mayores de 15 años. Pero también que pertenezcan a hogares con menos de 7 personas.

filter(datos_proc, edad >= 15)

## # A tibble: 151,315 x 8
##     edad      sexo             prev ocupacion tot_per  ytoth y26d_hog y26d_total
##    <dbl> <dbl+lbl>        <dbl+lbl> <dbl+lbl>   <dbl>  <dbl> <dbl+lb>  <dbl+lbl>
##  1    34 2 [Mujer] 3 [ISAPRE]          2 [No]       2 3.91e5   1 [Sí]         NA
##  2    45 1 [Hombr~ 1 [Sistema Públ~    1 [Sí]       3 9.48e5   2 [No]         NA
##  3    19 2 [Mujer] 4 [Ninguno (par~    2 [No]       3 9.48e5   2 [No]         NA
##  4    57 1 [Hombr~ 5 [Otro sistema]    1 [Sí]       3 3.00e6   2 [No]         NA
##  5    20 1 [Hombr~ 5 [Otro sistema]    2 [No]       3 3.00e6   2 [No]         NA
##  6    56 2 [Mujer] 5 [Otro sistema]    2 [No]       3 3.00e6   2 [No]         NA
##  7    77 1 [Hombr~ 1 [Sistema Públ~    2 [No]       2 6.10e5   2 [No]         NA
##  8    60 2 [Mujer] 1 [Sistema Públ~    2 [No]       2 6.10e5   2 [No]         NA
##  9    54 2 [Mujer] 1 [Sistema Públ~    1 [Sí]       4 1.32e6   1 [Sí]         NA
## 10    18 1 [Hombr~ 4 [Ninguno (par~    2 [No]       4 1.32e6   1 [Sí]         NA
## # ... with 151,305 more rows

filter(datos_proc, edad >= 15 & tot_per <7)

## # A tibble: 144,418 x 8
##     edad      sexo             prev ocupacion tot_per  ytoth y26d_hog y26d_total
##    <dbl> <dbl+lbl>        <dbl+lbl> <dbl+lbl>   <dbl>  <dbl> <dbl+lb>  <dbl+lbl>
##  1    34 2 [Mujer] 3 [ISAPRE]          2 [No]       2 3.91e5   1 [Sí]         NA
##  2    45 1 [Hombr~ 1 [Sistema Públ~    1 [Sí]       3 9.48e5   2 [No]         NA
##  3    19 2 [Mujer] 4 [Ninguno (par~    2 [No]       3 9.48e5   2 [No]         NA
##  4    57 1 [Hombr~ 5 [Otro sistema]    1 [Sí]       3 3.00e6   2 [No]         NA
##  5    20 1 [Hombr~ 5 [Otro sistema]    2 [No]       3 3.00e6   2 [No]         NA
##  6    56 2 [Mujer] 5 [Otro sistema]    2 [No]       3 3.00e6   2 [No]         NA
##  7    77 1 [Hombr~ 1 [Sistema Públ~    2 [No]       2 6.10e5   2 [No]         NA
##  8    60 2 [Mujer] 1 [Sistema Públ~    2 [No]       2 6.10e5   2 [No]         NA
##  9    54 2 [Mujer] 1 [Sistema Públ~    1 [Sí]       4 1.32e6   1 [Sí]         NA
## 10    18 1 [Hombr~ 4 [Ninguno (par~    2 [No]       4 1.32e6   1 [Sí]         NA
## # ... with 144,408 more rows
…
Ahora bien, antes hay que hacer una precisión importante: en los datos sexo es una variable que está como dbl y lbl (número etiquetado), por lo que no es que en la base aparezcan “Mujeres” y “Hombres”, sino que 2 y 1.

Por ello, con el siguiente código aparecerá un error en sus consolas.

filter(datos_proc, sexo == "Mujer")

Una función muy muy útil (sobre todo cuando trabajemos con regresiones) es as_factor() que permite conservar los niveles pero definiendo sus categorías de respuesta en base a la etiqueta que traen (el lbl)

datos_proc$sexo <- as_factor(datos_proc$sexo)

¡Ahora si funcionará!

filter(datos_proc, sexo == "Mujer")

## # A tibble: 99,341 x 8
##     edad sexo                 prev ocupacion tot_per   ytoth y26d_hog y26d_total
##    <dbl> <fct>           <dbl+lbl> <dbl+lbl>   <dbl>   <dbl> <dbl+lb>  <dbl+lbl>
##  1    34 Mujer 3 [ISAPRE]             2 [No]       2  390833   1 [Sí]         NA
##  2     4 Mujer 3 [ISAPRE]            NA            2  390833   1 [Sí]         NA
##  3     5 Mujer 4 [Ninguno (partic~   NA            3  947583   2 [No]         NA
##  4    19 Mujer 4 [Ninguno (partic~    2 [No]       3  947583   2 [No]         NA
##  5    56 Mujer 5 [Otro sistema]       2 [No]       3 3004167   2 [No]         NA
##  6    60 Mujer 1 [Sistema Público~    2 [No]       2  610250   2 [No]         NA
##  7    54 Mujer 1 [Sistema Público~    1 [Sí]       4 1321481   1 [Sí]         NA
##  8    31 Mujer 1 [Sistema Público~    1 [Sí]       4 1110000   2 [No]         NA
##  9     9 Mujer 1 [Sistema Público~   NA            4 1110000   2 [No]         NA
## 10    77 Mujer 1 [Sistema Público~    2 [No]       1  739833   2 [No]         NA
## # ... with 99,331 more rows

filter(datos_proc, sexo != "Hombre")

## # A tibble: 99,341 x 8
##     edad sexo                 prev ocupacion tot_per   ytoth y26d_hog y26d_total
##    <dbl> <fct>           <dbl+lbl> <dbl+lbl>   <dbl>   <dbl> <dbl+lb>  <dbl+lbl>
##  1    34 Mujer 3 [ISAPRE]             2 [No]       2  390833   1 [Sí]         NA
##  2     4 Mujer 3 [ISAPRE]            NA            2  390833   1 [Sí]         NA
##  3     5 Mujer 4 [Ninguno (partic~   NA            3  947583   2 [No]         NA
##  4    19 Mujer 4 [Ninguno (partic~    2 [No]       3  947583   2 [No]         NA
##  5    56 Mujer 5 [Otro sistema]       2 [No]       3 3004167   2 [No]         NA
##  6    60 Mujer 1 [Sistema Público~    2 [No]       2  610250   2 [No]         NA
##  7    54 Mujer 1 [Sistema Público~    1 [Sí]       4 1321481   1 [Sí]         NA
##  8    31 Mujer 1 [Sistema Público~    1 [Sí]       4 1110000   2 [No]         NA
##  9     9 Mujer 1 [Sistema Público~   NA            4 1110000   2 [No]         NA
## 10    77 Mujer 1 [Sistema Público~    2 [No]       1  739833   2 [No]         NA
## # ... with 99,331 more rows
…
